clip_name, bvi_name, fps, fno
aomcosmos_3840x2160_24_hdr10_11589-11752.y4m,aom_cosmos_3840x2160_24_hdr10_11589-11752.y4m-slow,24,130
wipe_3840x2160_5994_10bit_420_8750-9050.y4m,wipe_3840x2160_5994_10bit_420_8750-9050_long.y4m-slow,59.94,300
NocturneRoom_3840x2160_60fps_hdr10.y4m, NocturneRoom_3840x2160_60fps_hdr10_long.y4m-slow,60,300
svtsmithy_3840x2160_50_10bit_420p.y4m,svt_smithy_3840x2160_50_10bit_420p_long.y4m-slow,50,250
aomsol_levante_3840x2160_24_hdr10_2268-2412.y4m,aom_sol_levante_3840x2160_24_hdr10_2268-2412.y4m-slow,24,130
aommeridian1_3840x2160_5994_hdr10_15932-16309.y4m,aom_meridian_3840x2160_5994_hdr10_15932-16309_long.y4m-slow,59.94,300
aommeridian2_3840x2160_5994_hdr10_22412-22738_train_R0.y4m,aom_meridian_3840x2160_5994_hdr10_22412-22738_long.y4m-slow,59.94,300